module generator-currency-pair-price

go 1.18

require (
	github.com/KyleBanks/depth v1.2.1 // indirect
	github.com/PuerkitoBio/purell v1.1.1 // indirect
	github.com/PuerkitoBio/urlesc v0.0.0-20170810143723-de5bf2ad4578 // indirect
	github.com/cpuguy83/go-md2man/v2 v2.0.2 // indirect
	github.com/fsnotify/fsnotify v1.5.4 // indirect
	github.com/ghodss/yaml v1.0.0 // indirect
	github.com/go-openapi/jsonpointer v0.19.5 // indirect
	github.com/go-openapi/jsonreference v0.20.0 // indirect
	github.com/go-openapi/spec v0.20.6 // indirect
	github.com/go-openapi/swag v0.22.0 // indirect
	github.com/gorilla/mux v1.8.0 // indirect
	github.com/hashicorp/hcl v1.0.0 // indirect
	github.com/josharian/intern v1.0.0 // indirect
	github.com/magiconair/properties v1.8.6 // indirect
	github.com/mailru/easyjson v0.7.7 // indirect
	github.com/mitchellh/mapstructure v1.5.0 // indirect
	github.com/pelletier/go-toml v1.9.5 // indirect
	github.com/pelletier/go-toml/v2 v2.0.1 // indirect
	github.com/russross/blackfriday/v2 v2.1.0 // indirect
	github.com/shurcooL/sanitized_anchor_name v1.0.0 // indirect
	github.com/sirupsen/logrus v1.9.0 // indirect
	github.com/spf13/afero v1.8.2 // indirect
	github.com/spf13/cast v1.5.0 // indirect
	github.com/spf13/jwalterweatherman v1.1.0 // indirect
	github.com/spf13/pflag v1.0.5 // indirect
	github.com/spf13/viper v1.12.0 // indirect
	github.com/subosito/gotenv v1.3.0 // indirect
	github.com/swaggo/files v0.0.0-20220728132757-551d4a08d97a // indirect
	github.com/swaggo/http-swagger v1.3.3 // indirect
	github.com/swaggo/swag v1.8.4 // indirect
	github.com/urfave/cli/v2 v2.11.1 // indirect
	github.com/xrash/smetrics v0.0.0-20201216005158-039620a65673 // indirect
	golang.org/x/net v0.0.0-20220811182439-13a9a731de15 // indirect
	golang.org/x/sys v0.0.0-20220811171246-fbc7d0a398ab // indirect
	golang.org/x/text v0.3.7 // indirect
	golang.org/x/tools v0.1.12 // indirect
	gopkg.in/ini.v1 v1.66.4 // indirect
	gopkg.in/yaml.v2 v2.4.0 // indirect
	gopkg.in/yaml.v3 v3.0.1 // indirect
)
