{
    "swagger": "2.0",
    "info": {
        "description": "API Server for generation currency pair price",
        "title": "Generator currency pair price",
        "contact": {},
        "version": "1.0"
    },
    "host": "localhost:8080",
    "basePath": "/",
    "paths": {}
}